…
If first loads the data, collects the number of successes (got contact
info) and failures (didn't get contact info), builds the corresponding
Beta distribution and past success ratio, throws it all into the DataFrame
`bandit` and then samples from the distribution. (The Beta distribution
is useful here because the more samples have been collected, the smaller
the variance—and this is exactly what we want, since less-explored
locations should be sampled more often.)

So the output of the script can look something like this, where the most
preferred option is at the bottom:

	julia> sort(bandit, :sample)
	34×6 DataFrame
	 Row │ location  successes  failures  success_prob  dist                          sample
	     │ Int64     Int64      Int64     Float64       Beta…                         Float64
	─────┼──────────────────────────────────────────────────────────────────────────────────────
	   1 │   300211          0         3      0.0       Beta{Float64}(α=1.0, β=4.0)   0.0170241
	   2 │   438791          0         6      0.0       Beta{Float64}(α=1.0, β=7.0)   0.0448562
	   3 │    52055          0         1      0.0       Beta{Float64}(α=1.0, β=2.0)   0.0678704
	   4 │    10939          3        27      0.1       Beta{Float64}(α=4.0, β=28.0)  0.0684485
	   5 │   956569          4        16      0.2       Beta{Float64}(α=5.0, β=17.0)  0.0853593
	  ⋮  │    ⋮          ⋮         ⋮           ⋮                     ⋮                    ⋮
	  31 │   817198          1         0      1.0       Beta{Float64}(α=2.0, β=1.0)   0.670436
	  32 │   295748          1         0      1.0       Beta{Float64}(α=2.0, β=1.0)   0.71711
	  33 │    76108          1         1      0.5       Beta{Float64}(α=2.0, β=2.0)   0.724031
	  34 │   702595          1         0      1.0       Beta{Float64}(α=2.0, β=1.0)   0.864322
	                                                                             25 rows omitted
…
